source/mpu_top_tb.vcd
$date
	Mon Apr 21 14:25:32 2025
$end
$version
	Icarus Verilog
$end
$timescale
	1ps
$end
$scope module mpu_top_tb $end
$var wire 1 ! sda $end
$var wire 1 " sda_wire $end
$var wire 1 # scl $end
$var wire 1 $ read_done $end
$var wire 1 % init_done $end
$var wire 1 & data_avalid $end
$var wire 8 ' data [7:0] $end
$var reg 1 ( clk $end
$var reg 1 ) init_start $end
$var reg 1 * read_start $end
$var reg 1 + rst_n $end
$scope module dut $end
$var wire 1 ( clk $end
$var wire 1 ) init_start $end
$var wire 1 * read_start $end
$var wire 1 + rst_n $end
$var wire 1 " sda $end
$var wire 1 # scl $end
$var wire 1 , read_now $end
$var wire 1 $ read_done $end
$var wire 16 - n [15:0] $end
$var wire 16 . m [15:0] $end
$var wire 1 % init_done $end
$var wire 1 / en_start $end
$var wire 128 0 data_packed [127:0] $end
$var wire 1 & data_avalid $end
$var wire 8 1 data [7:0] $end
$var reg 4 2 cnt [3:0] $end
$scope module u_mpu_mid $end
$var wire 1 ( clk $end
$var wire 1 ) init_start $end
$var wire 1 * read_start $end
$var wire 1 + rst_n $end
$var wire 128 3 data_packed [127:0] $end
$var reg 8 4 data_0 [7:0] $end
$var reg 8 5 data_1 [7:0] $end
$var reg 1 / en_start $end
$var reg 16 6 m [15:0] $end
$var reg 16 7 n [15:0] $end
$var reg 1 , rd_now $end
$upscope $end
$scope module u_std_iic_master $end
$var wire 1 ( clk $end
$var wire 128 8 data_packed [127:0] $end
$var wire 1 / en_start $end
$var wire 16 9 m_read [15:0] $end
$var wire 16 : n_send [15:0] $end
$var wire 1 ; one_quarter_scl $end
$var wire 1 < one_quarter_scl_tick $end
$var wire 1 , read_now $end
$var wire 1 + rst_n $end
$var wire 1 = sda_dir $end
$var wire 1 % send_done $end
$var wire 1 > tick $end
$var wire 1 " sda $end
$var wire 1 # scl $end
$var wire 33 ? next_acc [32:0] $end
$var parameter 32 @ ACC_INC $end
$var parameter 32 A CLK_MAIN $end
$var real 1 B CLK_MAIN_REAL $end
$var parameter 3 C IDLE $end
$var real 1 D PHASE_INC_REAL $end
$var parameter 3 E READ $end
$var parameter 3 F RESTART $end
$var parameter 3 G R_ACK $end
$var parameter 32 H SCL_DIV $end
$var real 1 I SCL_DIV_REAL $end
$var parameter 3 J SEND $end
$var parameter 7 K SLAVE_ADDR $end
$var parameter 3 L START $end
$var parameter 3 M STOP $end
$var parameter 3 N W_ACK $end
$var reg 16 O M_READ [15:0] $end
$var reg 16 P N_SEND [15:0] $end
$var reg 32 Q acc [31:0] $end
$var reg 4 R bit_cnt_read [3:0] $end
$var reg 4 S bit_cnt_send [3:0] $end
$var reg 8 T data [7:0] $end
$var reg 1 & data_avalid $end
$var reg 8 U data_shift [7:0] $end
$var reg 16 V m [15:0] $end
$var reg 16 W n [15:0] $end
$var reg 3 X next_state [2:0] $end
$var reg 1 Y one_quarter_scl_tick_relay $end
$var reg 1 Z prev_condition $end
$var reg 1 [ read_now_reg $end
$var reg 1 \ restart_once $end
$var reg 1 ] scl_en $end
$var reg 1 # scl_gen $end
$var reg 1 ^ sda_gen $end
$var reg 3 _ state [2:0] $end
$var integer 32 ` i [31:0] $end
$upscope $end
$upscope $end
$upscope $end
$enddefinitions $end
$comment Show the parameter values. $end
$dumpall
b101 N
b111 M
b1 L
b1101000 K
b10 J
r800000 I
b11000011010100000000 H
b11 G
b110 F
b100 E
r68719476.736 D
b0 C
r50000000 B
b10111110101111000010000000 A
b100000110001001001101110100 @
$end
#0
$dumpvars
b10000 `
b0 _
1^
0]
0\
0[
xZ
xY
b11 X
b0 W
b0 V
b0 U
b0 T
b0 S
b0 R
b0 Q
bx P
bx O
b100000110001001001101110100 ?
0>
0=
0<
0;
bx :
bx 9
b0xxxxxxxxxxxxxxxx 8
bx 7
bx 6
bx 5
bx 4
b0xxxxxxxxxxxxxxxx 3
b0 2
b0 1
b0xxxxxxxxxxxxxxxx 0
x/
bx .
bx -
x,
1+
0*
0)
0(
b0 '
x&
0%
0$
1#
z"
z!
$end
#10000
0/
0Z
0Y
1(
#20000
0(
#30000
1(
#40000
0(
#50000
1(
#60000
0(
#70000
1(
#80000
0(
#90000
1(
#100000
b10000 `
0&
b0 .
b0 6
b0 9
b0 -
b0 7
b0 :
0,
b0 5
b0 0
b0 3
b0 8
b0 4
0(
0+
#110000
1(
#120000
0(
1+
#130000
1(
#140000
0(
#150000
1(
#160000
0(
#170000
1(
#180000
0(
#190000
1(
#200000
0(
#210000
1(
#220000
0(
#230000
1(
#240000
0(
#250000
1(
#260000
0(
#270000
1(
#280000
0(
#290000
1(
#300000
0(
#310000
1(
#320000
0(
#330000
1(
#340000
0(
#350000
1(
#360000
0(
#370000
1(
#380000
0(
#390000
1(
#400000
0(
#410000
1(
#420000
0(
#430000
1(
#440000
0(
#450000
1(
#460000
0(
#470000
1(
#480000
0(
#490000
1(
#500000
0(
#510000
1(
#520000
0(
#530000
1(
#540000
0(
#550000
1(
#560000
0(
#570000
1(
#580000
0(
#590000
1(
#600000
0(
#610000
1(
#620000
0(
#630000
1(
#640000
0(
#650000
1(
#660000
0(
#670000
1(
#680000
0(
#690000
1(
#700000
0(
#710000
1(
#720000
0(
#730000
1(
#740000
0(
#750000
1(
#760000
0(
#770000
1(
#780000
0(
#790000
1(
#800000
0(
#810000
1(
#820000
0(
#830000
1(
#840000
0(
#850000
1(
#860000
0(
#870000
1(
#880000
0(
#890000
1(
#900000
0(
#910000
1(
#920000
0(
#930000
1(
#940000
0(
#950000
1(
#960000
0(
#970000
1(
#980000
0(
#990000
1(
#1000000
0(
#1010000
1(
#1020000
0(
#1030000
1(
#1040000
0(
#1050000
1(
#1060000
0(
#1070000
1(
#1080000
0(
#1090000
1(
#1100000
0(
#1110000
1(
#1120000
0(
1)
#1130000
b10000 `
b1101011 0
b1101011 3
b1101011 8
b1101011 4
b1 -
b1 7
b1 :
1/
1(
#1140000
0(
0)
#1150000
1!
1"
1=
0/
b0 O
b1 P
b10 W
1]
b1 _
1(
#1160000
0(
#1170000
b1000001100010010011011101000 ?
b100000110001001001101110100 Q
1(
#1180000
0(
#1190000
b1100010010011011101001011100 ?
b1000001100010010011011101000 Q
1(
#1200000
0(
#1210000
b10000011000100100110111010000 ?
b1100010010011011101001011100 Q
1(
#1220000
0(
#1230000
b10100011110101110000101000100 ?
b10000011000100100110111010000 Q
1(
#1240000
0(
#1250000
b11000100100110111010010111000 ?
b10100011110101110000101000100 Q
1(
#1260000
0(
#1270000
b11100101011000000100000101100 ?
b11000100100110111010010111000 Q
1(
#1280000
0(
#1290000
b100000110001001001101110100000 ?
b11100101011000000100000101100 Q
1(
#1300000
0(
#1310000
b100100110111010010111100010100 ?
b100000110001001001101110100000 Q
1(
#1320000
0(
#1330000
b101000111101011100001010001000 ?
b100100110111010010111100010100 Q
1(
#1340000
0(
#1350000
b101101000011100101010111111100 ?
b101000111101011100001010001000 Q
1(
#1360000
0(
#1370000
b110001001001101110100101110000 ?
b101101000011100101010111111100 Q
1(
#1380000
0(
#1390000
b110101001111110111110011100100 ?
b110001001001101110100101110000 Q
1(
#1400000
0(
#1410000
b111001010110000001000001011000 ?
b110101001111110111110011100100 Q
1(
#1420000
0(
#1430000
b111101011100001010001111001100 ?
b111001010110000001000001011000 Q
1(
#1440000
0(
#1450000
b1000001100010010011011101000000 ?
b111101011100001010001111001100 Q
1(
#1460000
0(
#1470000
b1000101101000011100101010110100 ?
b1000001100010010011011101000000 Q
1(
#1480000
0(
#1490000
b1001001101110100101111000101000 ?
b1000101101000011100101010110100 Q
1(
#1500000
0(
#1510000
b1001101110100101111000110011100 ?
b1001001101110100101111000101000 Q
1(
#1520000
0(
#1530000
b1010001111010111000010100010000 ?
b1001101110100101111000110011100 Q
1(
#1540000
0(
#1550000
b1010110000001000001100010000100 ?
b1010001111010111000010100010000 Q
1(
#1560000
0(
#1570000
b1011010000111001010101111111000 ?
b1010110000001000001100010000100 Q
1(
#1580000
0(
#1590000
b1011110001101010011111101101100 ?
b1011010000111001010101111111000 Q
1(
#1600000
0(
#1610000
b1100010010011011101001011100000 ?
b1011110001101010011111101101100 Q
1(
#1620000
0(
#1630000
b1100110011001100110011001010100 ?
b1100010010011011101001011100000 Q
1(
#1640000
0(
#1650000
b1101010011111101111100111001000 ?
b1100110011001100110011001010100 Q
1(
#1660000
0(
#1670000
b1101110100101111000110100111100 ?
b1101010011111101111100111001000 Q
1(
#1680000
0(
#1690000
b1110010101100000010000010110000 ?
b1101110100101111000110100111100 Q
1(
#1700000
0(
#1710000
b1110110110010001011010000100100 ?
b1110010101100000010000010110000 Q
1(
#1720000
0(
#1730000
b1111010111000010100011110011000 ?
b1110110110010001011010000100100 Q
1(
#1740000
0(
#1750000
b1111110111110011101101100001100 ?
b1111010111000010100011110011000 Q
1(
#1760000
0(
#1770000
b10000011000100100110111010000000 ?
b1111110111110011101101100001100 Q
1(
#1780000
0(
#1790000
1<
1;
b10000111001010110000000111110100 ?
b10000011000100100110111010000000 Q
1(
#1800000
0(
#1810000
0!
0"
0<
0^
b10001011010000111001010101101000 ?
b10000111001010110000000111110100 Q
1Z
1Y
b11010000 U
1(
#1820000
0(
#1830000
0Y
b10001111010111000010100011011100 ?
b10001011010000111001010101101000 Q
1(
#1840000
0(
#1850000
b10010011011101001011110001010000 ?
b10001111010111000010100011011100 Q
1(
#1860000
0(
#1870000
b10010111100011010100111111000100 ?
b10010011011101001011110001010000 Q
1(
#1880000
0(
#1890000
b10011011101001011110001100111000 ?
b10010111100011010100111111000100 Q
1(
#1900000
0(
#1910000
b10011111101111100111011010101100 ?
b10011011101001011110001100111000 Q
1(
#1920000
0(
#1930000
b10100011110101110000101000100000 ?
b10011111101111100111011010101100 Q
1(
#1940000
0(
#1950000
b10100111111011111001110110010100 ?
b10100011110101110000101000100000 Q
1(
#1960000
0(
#1970000
b10101100000010000011000100001000 ?
b10100111111011111001110110010100 Q
1(
#1980000
0(
#1990000
b10110000001000001100010001111100 ?
b10101100000010000011000100001000 Q
1(
#2000000
0(
#2010000
b10110100001110010101011111110000 ?
b10110000001000001100010001111100 Q
1(
#2020000
0(
#2030000
b10111000010100011110101101100100 ?
b10110100001110010101011111110000 Q
1(
#2040000
0(
#2050000
b10111100011010100111111011011000 ?
b10111000010100011110101101100100 Q
1(
#2060000
0(
#2070000
b11000000100000110001001001001100 ?
b10111100011010100111111011011000 Q
1(
#2080000
0(
#2090000
0;
b11000100100110111010010111000000 ?
b11000000100000110001001001001100 Q
1(
#2100000
0(
#2110000
0Z
b11001000101101000011100100110100 ?
b11000100100110111010010111000000 Q
1(
#2120000
0(
#2130000
b11001100110011001100110010101000 ?
b11001000101101000011100100110100 Q
1(
#2140000
0(
#2150000
b11010000111001010110000000011100 ?
b11001100110011001100110010101000 Q
1(
#2160000
0(
#2170000
b11010100111111011111001110010000 ?
b11010000111001010110000000011100 Q
1(
#2180000
0(
#2190000
b11011001000101101000011100000100 ?
b11010100111111011111001110010000 Q
1(
#2200000
0(
#2210000
b11011101001011110001101001111000 ?
b11011001000101101000011100000100 Q
1(
#2220000
0(
#2230000
b11100001010001111010110111101100 ?
b11011101001011110001101001111000 Q
1(
#2240000
0(
#2250000
b11100101011000000100000101100000 ?
b11100001010001111010110111101100 Q
1(
#2260000
0(
#2270000
b11101001011110001101010011010100 ?
b11100101011000000100000101100000 Q
1(
#2280000
0(
#2290000
b11101101100100010110100001001000 ?
b11101001011110001101010011010100 Q
1(
#2300000
0(
#2310000
b11110001101010011111101110111100 ?
b11101101100100010110100001001000 Q
1(
#2320000
0(
#2330000
b11110101110000101000111100110000 ?
b11110001101010011111101110111100 Q
1(
#2340000
0(
#2350000
b11111001110110110010001010100100 ?
b11110101110000101000111100110000 Q
1(
#2360000
0(
#2370000
b11111101111100111011011000011000 ?
b11111001110110110010001010100100 Q
1(
#2380000
0(
#2390000
1>
b100000010000011000100100110001100 ?
b11111101111100111011011000011000 Q
1(
#2400000
0(
#2410000
0>
b110001001001101110100000000 ?
b10000011000100100110001100 Q
0#
1(
#2420000
0(
#2430000
b1010001111010111000001110100 ?
b110001001001101110100000000 Q
1(
#2440000
0(
#2450000
b1110010101100000001111101000 ?
b1010001111010111000001110100 Q
1(
#2460000
0(
#2470000
b10010011011101001011101011100 ?
b1110010101100000001111101000 Q
1(
#2480000
0(
#2490000
b10110100001110010101011010000 ?
b10010011011101001011101011100 Q
1(
#2500000
0(
#2510000
b11010100111111011111001000100 ?
b10110100001110010101011010000 Q
1(
#2520000
0(
#2530000
b11110101110000101000110111000 ?
b11010100111111011111001000100 Q
1(
#2540000
0(
#2550000
b100010110100001110010100101100 ?
b11110101110000101000110111000 Q
1(
#2560000
0(
#2570000
b100110111010010111100010100000 ?
b100010110100001110010100101100 Q
1(
#2580000
0(
#2590000
b101011000000100000110000010100 ?
b100110111010010111100010100000 Q
1(
#2600000
0(
#2610000
b101111000110101001111110001000 ?
b101011000000100000110000010100 Q
1(
#2620000
0(
#2630000
b110011001100110011001011111100 ?
b101111000110101001111110001000 Q
1(
#2640000
0(
#2650000
b110111010010111100011001110000 ?
b110011001100110011001011111100 Q
1(
#2660000
0(
#2670000
b111011011001000101100111100100 ?
b110111010010111100011001110000 Q
1(
#2680000
0(
#2690000
b111111011111001110110101011000 ?
b111011011001000101100111100100 Q
1(
#2700000
0(
#2710000
b1000011100101011000000011001100 ?
b111111011111001110110101011000 Q
1(
#2720000
0(
#2730000
b1000111101011100001010001000000 ?
b1000011100101011000000011001100 Q
1(
#2740000
0(
#2750000
b1001011110001101010011110110100 ?
b1000111101011100001010001000000 Q
1(
#2760000
0(
#2770000
b1001111110111110011101100101000 ?
b1001011110001101010011110110100 Q
1(
#2780000
0(
#2790000
b1010011111101111100111010011100 ?
b1001111110111110011101100101000 Q
1(
#2800000
0(
#2810000
b1011000000100000110001000010000 ?
b1010011111101111100111010011100 Q
1(
#2820000
0(
#2830000
b1011100001010001111010110000100 ?
b1011000000100000110001000010000 Q
1(
#2840000
0(
#2850000
b1100000010000011000100011111000 ?
b1011100001010001111010110000100 Q
1(
#2860000
0(
#2870000
b1100100010110100001110001101100 ?
b1100000010000011000100011111000 Q
1(
#2880000
0(
#2890000
b1101000011100101010111111100000 ?
b1100100010110100001110001101100 Q
1(
#2900000
0(
#2910000
b1101100100010110100001101010100 ?
b1101000011100101010111111100000 Q
1(
#2920000
0(
#2930000
b1110000101000111101011011001000 ?
b1101100100010110100001101010100 Q
1(
#2940000
0(
#2950000
b1110100101111000110101000111100 ?
b1110000101000111101011011001000 Q
1(
#2960000
0(
#2970000
b1111000110101001111110110110000 ?
b1110100101111000110101000111100 Q
1(
#2980000
0(
#2990000
b1111100111011011001000100100100 ?
b1111000110101001111110110110000 Q
1(
#3000000
0(
#3010000
b10000001000001100010010010011000 ?
b1111100111011011001000100100100 Q
1(
#3020000
0(
#3030000
1<
1;
b10000101000111101011100000001100 ?
b10000001000001100010010010011000 Q
1(
#3040000
0(
#3050000
0<
b10 _
b10001001001101110100101110000000 ?
b10000101000111101011100000001100 Q
1Z
1Y
1(
#3060000
0(
#3070000
1!
1"
1^
0Y
b10001101010011111101111011110100 ?
b10001001001101110100101110000000 Q
1(
#3080000
0(
#3090000
b10010001011010000111001001101000 ?
b10001101010011111101111011110100 Q
1(
#3100000
0(
#3110000
b10010101100000010000010111011100 ?
b10010001011010000111001001101000 Q
1(
#3120000
0(
#3130000
b10011001100110011001100101010000 ?
b10010101100000010000010111011100 Q
1(
#3140000
0(
#3150000
b10011101101100100010110011000100 ?
b10011001100110011001100101010000 Q
1(
#3160000
0(
#3170000
b10100001110010101100000000111000 ?
b10011101101100100010110011000100 Q
1(
#3180000
0(
#3190000
b10100101111000110101001110101100 ?
b10100001110010101100000000111000 Q
1(
#3200000
0(
#3210000
b10101001111110111110011100100000 ?
b10100101111000110101001110101100 Q
1(
#3220000
0(
#3230000
b10101110000101000111101010010100 ?
b10101001111110111110011100100000 Q
1(
#3240000
0(
#3250000
b10110010001011010000111000001000 ?
b10101110000101000111101010010100 Q
1(
#3260000
0(
#3270000
b10110110010001011010000101111100 ?
b10110010001011010000111000001000 Q
1(
#3280000
0(
#3290000
b10111010010111100011010011110000 ?
b10110110010001011010000101111100 Q
1(
#3300000
0(
#3310000
b10111110011101101100100001100100 ?
b10111010010111100011010011110000 Q
1(
#3320000
0(
#3330000
b11000010100011110101101111011000 ?
b10111110011101101100100001100100 Q
1(
#3340000
0(
#3350000
0;
b11000110101001111110111101001100 ?
b11000010100011110101101111011000 Q
1(
#3360000
0(
#3370000
b11001010110000001000001011000000 ?
b11000110101001111110111101001100 Q
0Z
1(
#3380000
0(
#3390000
b11001110110110010001011000110100 ?
b11001010110000001000001011000000 Q
1(
#3400000
0(
#3410000
b11010010111100011010100110101000 ?
b11001110110110010001011000110100 Q
1(
#3420000
0(
#3430000
b11010111000010100011110100011100 ?
b11010010111100011010100110101000 Q
1(
#3440000
0(
#3450000
b11011011001000101101000010010000 ?
b11010111000010100011110100011100 Q
1(
#3460000
0(
#3470000
b11011111001110110110010000000100 ?
b11011011001000101101000010010000 Q
1(
#3480000
0(
#3490000
b11100011010100111111011101111000 ?
b11011111001110110110010000000100 Q
1(
#3500000
0(
#3510000
b11100111011011001000101011101100 ?
b11100011010100111111011101111000 Q
1(
#3520000
0(
#3530000
b11101011100001010001111001100000 ?
b11100111011011001000101011101100 Q
1(
#3540000
0(
#3550000
b11101111100111011011000111010100 ?
b11101011100001010001111001100000 Q
1(
#3560000
0(
#3570000
b11110011101101100100010101001000 ?
b11101111100111011011000111010100 Q
1(
#3580000
0(
#3590000
b11110111110011101101100010111100 ?
b11110011101101100100010101001000 Q
1(
#3600000
0(
#3610000
b11111011111001110110110000110000 ?
b11110111110011101101100010111100 Q
1(
#3620000
0(
#3630000
b11111111111111111111111110100100 ?
b11111011111001110110110000110000 Q
1(
#3640000
0(
#3650000
1>
b100000100000110001001001100011000 ?
b11111111111111111111111110100100 Q
1(
#3660000
0(
#3670000
0>
b1000001100010010011010001100 ?
b100000110001001001100011000 Q
1#
1(
#3680000
0(
#3690000
b1100010010011011101000000000 ?
b1000001100010010011010001100 Q
1(
#3700000
0(
#3710000
b10000011000100100110101110100 ?
b1100010010011011101000000000 Q
1(
#3720000
0(
#3730000
b10100011110101110000011101000 ?
b10000011000100100110101110100 Q
1(
#3740000
0(
#3750000
b11000100100110111010001011100 ?
b10100011110101110000011101000 Q
1(
#3760000
0(
#3770000
b11100101011000000011111010000 ?
b11000100100110111010001011100 Q
1(
#3780000
0(
#3790000
b100000110001001001101101000100 ?
b11100101011000000011111010000 Q
1(
#3800000
0(
#3810000
b100100110111010010111010111000 ?
b100000110001001001101101000100 Q
1(
#3820000
0(
#3830000
b101000111101011100001000101100 ?
b100100110111010010111010111000 Q
1(
#3840000
0(
#3850000
b101101000011100101010110100000 ?
b101000111101011100001000101100 Q
1(
#3860000
0(
#3870000
b110001001001101110100100010100 ?
b101101000011100101010110100000 Q
1(
#3880000
0(
#3890000
b110101001111110111110010001000 ?
b110001001001101110100100010100 Q
1(
#3900000
0(
#3910000
b111001010110000000111111111100 ?
b110101001111110111110010001000 Q
1(
#3920000
0(
#3930000
b111101011100001010001101110000 ?
b111001010110000000111111111100 Q
1(
#3940000
0(
#3950000
b1000001100010010011011011100100 ?
b111101011100001010001101110000 Q
1(
#3960000
0(
#3970000
b1000101101000011100101001011000 ?
b1000001100010010011011011100100 Q
1(
#3980000
0(
#3990000
b1001001101110100101110111001100 ?
b1000101101000011100101001011000 Q
1(
#4000000
0(
#4010000
b1001101110100101111000101000000 ?
b1001001101110100101110111001100 Q
1(
#4020000
0(
#4030000
b1010001111010111000010010110100 ?
b1001101110100101111000101000000 Q
1(
#4040000
0(
#4050000
b1010110000001000001100000101000 ?
b1010001111010111000010010110100 Q
1(
#4060000
0(
#4070000
b1011010000111001010101110011100 ?
b1010110000001000001100000101000 Q
1(
#4080000
0(
#4090000
b1011110001101010011111100010000 ?
b1011010000111001010101110011100 Q
1(
#4100000
0(
#4110000
b1100010010011011101001010000100 ?
b1011110001101010011111100010000 Q
1(
#4120000
0(
#4130000
b1100110011001100110010111111000 ?
b1100010010011011101001010000100 Q
1(
#4140000
0(
#4150000
b1101010011111101111100101101100 ?
b1100110011001100110010111111000 Q
1(
#4160000
0(
#4170000
b1101110100101111000110011100000 ?
b1101010011111101111100101101100 Q
1(
#4180000
0(
#4190000
b1110010101100000010000001010100 ?
b1101110100101111000110011100000 Q
1(
#4200000
0(
#4210000
b1110110110010001011001111001000 ?
b1110010101100000010000001010100 Q
1(
#4220000
0(
#4230000
b1111010111000010100011100111100 ?
b1110110110010001011001111001000 Q
1(
#4240000
0(
#4250000
b1111110111110011101101010110000 ?
b1111010111000010100011100111100 Q
1(
#4260000
0(
#4270000
b10000011000100100110111000100100 ?
b1111110111110011101101010110000 Q
1(
#4280000
0(
#4290000
1<
1;
b10000111001010110000000110011000 ?
b10000011000100100110111000100100 Q
1(
#4300000
0(
#4310000
0<
1Y
1Z
b10001011010000111001010100001100 ?
b10000111001010110000000110011000 Q
1(
#4320000
0(
#4330000
b10001111010111000010100010000000 ?
b10001011010000111001010100001100 Q
0Y
1(
#4340000
0(
#4350000
b10010011011101001011101111110100 ?
b10001111010111000010100010000000 Q
1(
#4360000
0(
#4370000
b10010111100011010100111101101000 ?
b10010011011101001011101111110100 Q
1(
#4380000
0(
#4390000
b10011011101001011110001011011100 ?
b10010111100011010100111101101000 Q
1(
#4400000
0(
#4410000
b10011111101111100111011001010000 ?
b10011011101001011110001011011100 Q
1(
#4420000
0(
#4430000
b10100011110101110000100111000100 ?
b10011111101111100111011001010000 Q
1(
#4440000
0(
#4450000
b10100111111011111001110100111000 ?
b10100011110101110000100111000100 Q
1(
#4460000
0(
#4470000
b10101100000010000011000010101100 ?
b10100111111011111001110100111000 Q
1(
#4480000
0(
#4490000
b10110000001000001100010000100000 ?
b10101100000010000011000010101100 Q
1(
#4500000
0(
#4510000
b10110100001110010101011110010100 ?
b10110000001000001100010000100000 Q
1(
#4520000
0(
#4530000
b10111000010100011110101100001000 ?
b10110100001110010101011110010100 Q
1(
#4540000
0(
#4550000
b10111100011010100111111001111100 ?
b10111000010100011110101100001000 Q
1(
#4560000
0(
#4570000
b11000000100000110001000111110000 ?
b10111100011010100111111001111100 Q
1(
#4580000
0(
#4590000
0;
b11000100100110111010010101100100 ?
b11000000100000110001000111110000 Q
1(
#4600000
0(
#4610000
b11001000101101000011100011011000 ?
b11000100100110111010010101100100 Q
0Z
1(
#4620000
0(
#4630000
b11001100110011001100110001001100 ?
b11001000101101000011100011011000 Q
1(
#4640000
0(
#4650000
b11010000111001010101111111000000 ?
b11001100110011001100110001001100 Q
1(
#4660000
0(
#4670000
b11010100111111011111001100110100 ?
b11010000111001010101111111000000 Q
1(
#4680000
0(
#4690000
b11011001000101101000011010101000 ?
b11010100111111011111001100110100 Q
1(
#4700000
0(
#4710000
b11011101001011110001101000011100 ?
b11011001000101101000011010101000 Q
1(
#4720000
0(
#4730000
b11100001010001111010110110010000 ?
b11011101001011110001101000011100 Q
1(
#4740000
0(
#4750000
b11100101011000000100000100000100 ?
b11100001010001111010110110010000 Q
1(
#4760000
0(
#4770000
b11101001011110001101010001111000 ?
b11100101011000000100000100000100 Q
1(
#4780000
0(
#4790000
b11101101100100010110011111101100 ?
b11101001011110001101010001111000 Q
1(
#4800000
0(
#4810000
b11110001101010011111101101100000 ?
b11101101100100010110011111101100 Q
1(
#4820000
0(
#4830000
b11110101110000101000111011010100 ?
b11110001101010011111101101100000 Q
1(
#4840000
0(
#4850000
b11111001110110110010001001001000 ?
b11110101110000101000111011010100 Q
1(
#4860000
0(
#4870000
b11111101111100111011010110111100 ?
b11111001110110110010001001001000 Q
1(
#4880000
0(
#4890000
1>
b100000010000011000100100100110000 ?
b11111101111100111011010110111100 Q
1(
#4900000
0(
#4910000
0>
b110001001001101110010100100 ?
b10000011000100100100110000 Q
0#
1(
#4920000
0(
#4930000
b1010001111010111000000011000 ?
b110001001001101110010100100 Q
1(
#4940000
0(
#4950000
b1110010101100000001110001100 ?
b1010001111010111000000011000 Q
1(
#4960000
0(
#4970000
b10010011011101001011100000000 ?
b1110010101100000001110001100 Q
1(
#4980000
0(
#4990000
b10110100001110010101001110100 ?
b10010011011101001011100000000 Q
1(
#5000000
0(
#5010000
b11010100111111011110111101000 ?
b10110100001110010101001110100 Q
1(
#5020000
0(
#5030000
b11110101110000101000101011100 ?
b11010100111111011110111101000 Q
1(
#5040000
0(
#5050000
b100010110100001110010011010000 ?
b11110101110000101000101011100 Q
1(
#5060000
0(
#5070000
b100110111010010111100001000100 ?
b100010110100001110010011010000 Q
1(
#5080000
0(
#5090000
b101011000000100000101110111000 ?
b100110111010010111100001000100 Q
1(
#5100000
0(
#5110000
b101111000110101001111100101100 ?
b101011000000100000101110111000 Q
1(
#5120000
0(
#5130000
b110011001100110011001010100000 ?
b101111000110101001111100101100 Q
1(
#5140000
0(
#5150000
b110111010010111100011000010100 ?
b110011001100110011001010100000 Q
1(
#5160000
0(
#5170000
b111011011001000101100110001000 ?
b110111010010111100011000010100 Q
1(
#5180000
0(
#5190000
b111111011111001110110011111100 ?
b111011011001000101100110001000 Q
1(
#5200000
0(
#5210000
b1000011100101011000000001110000 ?
b111111011111001110110011111100 Q
1(
#5220000
0(
#5230000
b1000111101011100001001111100100 ?
b1000011100101011000000001110000 Q
1(
#5240000
0(
#5250000
b1001011110001101010011101011000 ?
b1000111101011100001001111100100 Q
1(
#5260000
0(
#5270000
b1001111110111110011101011001100 ?
b1001011110001101010011101011000 Q
1(
#5280000
0(
#5290000
b1010011111101111100111001000000 ?
b1001111110111110011101011001100 Q
1(
#5300000
0(
#5310000
b1011000000100000110000110110100 ?
b1010011111101111100111001000000 Q
1(
#5320000
0(
#5330000
b1011100001010001111010100101000 ?
b1011000000100000110000110110100 Q
1(
#5340000
0(
#5350000
b1100000010000011000100010011100 ?
b1011100001010001111010100101000 Q
1(
#5360000
0(
#5370000
b1100100010110100001110000010000 ?
b1100000010000011000100010011100 Q
1(
#5380000
0(
#5390000
b1101000011100101010111110000100 ?
b1100100010110100001110000010000 Q
1(
#5400000
0(
#5410000
b1101100100010110100001011111000 ?
b1101000011100101010111110000100 Q
1(
#5420000
0(
#5430000
b1110000101000111101011001101100 ?
b1101100100010110100001011111000 Q
1(
#5440000
0(
#5450000
b1110100101111000110100111100000 ?
b1110000101000111101011001101100 Q
1(
#5460000
0(
#5470000
b1111000110101001111110101010100 ?
b1110100101111000110100111100000 Q
1(
#5480000
0(
#5490000
b1111100111011011001000011001000 ?
b1111000110101001111110101010100 Q
1(
#5500000
0(
#5510000
b10000001000001100010010000111100 ?
b1111100111011011001000011001000 Q
1(
#5520000
0(
#5530000
1<
1;
b10000101000111101011011110110000 ?
b10000001000001100010010000111100 Q
1(
#5540000
0(
#5550000
0<
b1 S
1Y
1Z
b10001001001101110100101100100100 ?
b10000101000111101011011110110000 Q
1(
#5560000
0(
#5570000
b10001101010011111101111010011000 ?
b10001001001101110100101100100100 Q
0Y
1(
#5580000
0(
#5590000
b10010001011010000111001000001100 ?
b10001101010011111101111010011000 Q
1(
#5600000
0(
#5610000
b10010101100000010000010110000000 ?
b10010001011010000111001000001100 Q
1(
#5620000
0(
#5630000
b10011001100110011001100011110100 ?
b10010101100000010000010110000000 Q
1(
#5640000
0(
#5650000
b10011101101100100010110001101000 ?
b10011001100110011001100011110100 Q
1(
#5660000
0(
#5670000
b10100001110010101011111111011100 ?
b10011101101100100010110001101000 Q
1(
#5680000
0(
#5690000
b10100101111000110101001101010000 ?
b10100001110010101011111111011100 Q
1(
#5700000
0(
#5710000
b10101001111110111110011011000100 ?
b10100101111000110101001101010000 Q
1(
#5720000
0(
#5730000
b10101110000101000111101000111000 ?
b10101001111110111110011011000100 Q
1(
#5740000
0(
#5750000
b10110010001011010000110110101100 ?
b10101110000101000111101000111000 Q
1(
#5760000
0(
#5770000
b10110110010001011010000100100000 ?
b10110010001011010000110110101100 Q
1(
#5780000
0(
#5790000
b10111010010111100011010010010100 ?
b10110110010001011010000100100000 Q
1(
#5800000
0(
#5810000
b10111110011101101100100000001000 ?
b10111010010111100011010010010100 Q
1(
#5820000
0(
#5830000
b11000010100011110101101101111100 ?
b10111110011101101100100000001000 Q
1(
#5840000
0(
#5850000
0;
b11000110101001111110111011110000 ?
b11000010100011110101101101111100 Q
1(
#5860000
0(
#5870000
0Z
b11001010110000001000001001100100 ?
b11000110101001111110111011110000 Q
1(
#5880000
0(
#5890000
b11001110110110010001010111011000 ?
b11001010110000001000001001100100 Q
1(
#5900000
0(
#5910000
b11010010111100011010100101001100 ?
b11001110110110010001010111011000 Q
1(
#5920000
0(
#5930000
b11010111000010100011110011000000 ?
b11010010111100011010100101001100 Q
1(
#5940000
0(
#5950000
b11011011001000101101000000110100 ?
b11010111000010100011110011000000 Q
1(
#5960000
0(
#5970000
b11011111001110110110001110101000 ?
b11011011001000101101000000110100 Q
1(
#5980000
0(
#5990000
b11100011010100111111011100011100 ?
b11011111001110110110001110101000 Q
1(
#6000000
0(
#6010000
b11100111011011001000101010010000 ?
b11100011010100111111011100011100 Q
1(
#6020000
0(
#6030000
b11101011100001010001111000000100 ?
b11100111011011001000101010010000 Q
1(
#6040000
0(
#6050000
b11101111100111011011000101111000 ?
b11101011100001010001111000000100 Q
1(
#6060000
0(
#6070000
b11110011101101100100010011101100 ?
b11101111100111011011000101111000 Q
1(
#6080000
0(
#6090000
b11110111110011101101100001100000 ?
b11110011101101100100010011101100 Q
1(
#6100000
0(
#6110000
b11111011111001110110101111010100 ?
b11110111110011101101100001100000 Q
1(
